################
# cat ANSI Art #
################

Many people may not know this, but 'cat' can display ANSI art. Cat this
file to see what I mean:

    cat "/path/to/cat - ANSI Art.txt"

[48;2;138;138;138m[38;2;135;135;135m▌[48;2;144;144;144m[38;2;141;141;141m▌[48;2;150;150;150m[38;2;147;147;147m▌[48;2;157;157;157m[38;2;154;154;154m▌[48;2;160;160;160m[38;2;164;164;164m▝[48;2;166;166;166m[38;2;170;170;170m▝[48;2;174;174;174m[38;2;170;170;170m▃[48;2;180;180;180m[38;2;175;175;175m▄[48;2;184;184;184m[38;2;179;179;179m▄[48;2;187;187;187m[38;2;183;183;183m▄[48;2;191;191;191m[38;2;186;186;186m▅[48;2;193;193;193m[38;2;188;188;188m▄[48;2;195;195;195m[38;2;190;190;190m▄[48;2;196;196;196m[38;2;191;191;191m▃[48;2;199;199;199m[38;2;193;193;193m▄[48;2;200;200;200m[38;2;194;194;194m▄[48;2;200;200;200m[38;2;195;195;195m▄[48;2;201;201;201m[38;2;196;196;196m▄[48;2;201;201;201m[38;2;195;195;195m▃[48;2;201;201;201m[38;2;195;195;195m▃[48;2;200;200;200m[38;2;196;196;196m▄[48;2;200;200;200m[38;2;195;195;195m▄[48;2;196;196;196m[38;2;0;0;0m [48;2;193;189;192m[38;2;0;0;0m [48;2;185;170;178m[38;2;146;98;120m╹[48;2;184;183;183m[38;2;0;0;0m [48;2;192;192;192m[38;2;187;187;187m▄[48;2;189;189;189m[38;2;184;184;184m▅[48;2;185;185;185m[38;2;180;180;180m▃[48;2;181;181;181m[38;2;176;176;176m▃[48;2;177;177;177m[38;2;173;173;173m▄[48;2;169;169;169m[38;2;173;173;173m▘[48;2;163;163;163m[38;2;168;168;168m▘[48;2;160;160;160m[38;2;157;157;157m▅[48;2;150;150;150m[38;2;154;154;154m▌[48;2;144;144;144m[38;2;147;147;147m▌[48;2;138;138;138m[38;2;141;141;141m▌[0m
[48;2;137;137;137m[38;2;134;134;134m▊[48;2;140;140;140m[38;2;143;143;143m▝[48;2;147;147;147m[38;2;144;144;144m▌[48;2;152;152;152m[38;2;149;149;149m▌[48;2;155;155;155m[38;2;159;159;159m▝[48;2;162;162;162m[38;2;159;159;159m▄[48;2;166;166;166m[38;2;163;163;163m▃[48;2;170;170;170m[38;2;166;166;166m▃[48;2;175;175;175m[38;2;170;170;170m▃[48;2;178;178;178m[38;2;174;174;174m▄[48;2;180;180;180m[38;2;176;176;176m▃[48;2;183;183;183m[38;2;178;178;178m▃[48;2;186;186;186m[38;2;181;181;181m▄[48;2;188;188;188m[38;2;183;183;183m▄[48;2;189;189;189m[38;2;184;184;184m▄[48;2;190;190;190m[38;2;185;185;185m▄[48;2;190;190;190m[38;2;185;185;185m▃[48;2;191;191;191m[38;2;186;186;186m▄[48;2;191;191;191m[38;2;186;186;186m▄[48;2;191;191;191m[38;2;186;186;186m▄[48;2;191;191;191m[38;2;186;186;186m▄[48;2;186;186;186m[38;2;0;0;0m [48;2;184;177;182m[38;2;171;115;141m┏[48;2;183;161;171m[38;2;0;0;0m [48;2;187;185;186m[38;2;181;181;181m▃[48;2;185;185;185m[38;2;180;181;180m▅[48;2;182;182;182m[38;2;177;177;177m▄[48;2;179;179;179m[38;2;174;174;174m▃[48;2;176;176;176m[38;2;172;172;172m▃[48;2;173;173;173m[38;2;169;169;169m▄[48;2;168;168;168m[38;2;165;165;165m▃[48;2;161;161;161m[38;2;166;166;166m▘[48;2;159;159;159m[38;2;156;156;156m▃[48;2;154;154;154m[38;2;151;151;151m▄[48;2;146;146;146m[38;2;149;149;149m▌[48;2;142;142;142m[38;2;145;145;145m▘[48;2;136;136;136m[38;2;138;138;138m▌[0m
[48;2;134;134;134m[38;2;131;131;131m▌[48;2;138;138;138m[38;2;136;136;136m▌[48;2;141;141;141m[38;2;144;144;144m▝[48;2;147;147;147m[38;2;145;145;145m▃[48;2;149;149;149m[38;2;153;153;153m▝[48;2;156;156;156m[38;2;153;153;153m▅[48;2;159;159;159m[38;2;156;156;156m▃[48;2;163;163;163m[38;2;160;160;160m▄[48;2;167;167;167m[38;2;163;163;163m▄[48;2;170;170;170m[38;2;166;166;166m▄[48;2;172;172;172m[38;2;168;168;168m▄[48;2;174;174;174m[38;2;169;169;169m▃[48;2;176;176;176m[38;2;172;172;172m▄[48;2;178;178;178m[38;2;173;173;173m▄[48;2;179;179;179m[38;2;174;174;174m▄[48;2;181;181;181m[38;2;176;176;176m▄[48;2;181;181;181m[38;2;176;176;176m▄[48;2;182;182;182m[38;2;177;177;177m▄[48;2;181;181;181m[38;2;177;177;177m▃[48;2;181;181;181m[38;2;177;177;177m▃[48;2;173;169;171m[38;2;131;85;105m▗[48;2;168;149;158m[38;2;129;56;88m╸[48;2;176;174;176m[38;2;0;0;0m [48;2;178;178;177m[38;2;173;174;175m▃[48;2;176;176;176m[38;2;172;172;172m▃[48;2;175;175;175m[38;2;171;171;171m▄[48;2;173;173;173m[38;2;168;168;168m▄[48;2;171;171;171m[38;2;167;167;167m▅[48;2;168;168;168m[38;2;164;164;164m▄[48;2;165;165;165m[38;2;161;161;161m▃[48;2;160;160;160m[38;2;157;157;157m▃[48;2;157;157;157m[38;2;154;154;154m▃[48;2;151;151;151m[38;2;154;154;154m▘[48;2;147;147;147m[38;2;150;150;150m▘[48;2;142;142;142m[38;2;146;146;146m▘[48;2;138;138;138m[38;2;140;140;140m▌[48;2;133;133;133m[38;2;135;135;135m▊[0m
[48;2;130;130;130m[38;2;128;128;128m▖[48;2;135;135;135m[38;2;132;132;132m▌[48;2;138;138;138m[38;2;136;136;136m▃[48;2;142;142;142m[38;2;140;140;140m▃[48;2;146;146;146m[38;2;143;143;143m▄[48;2;149;149;149m[38;2;146;146;146m▃[48;2;153;153;153m[38;2;150;150;150m▅[48;2;156;156;156m[38;2;153;153;153m▄[48;2;159;159;159m[38;2;155;155;155m▃[48;2;162;162;162m[38;2;158;158;158m▄[48;2;164;164;164m[38;2;160;160;160m▄[48;2;166;166;166m[38;2;163;163;163m▅[48;2;169;169;169m[38;2;164;164;164m▅[48;2;170;170;170m[38;2;165;165;165m▅[48;2;171;171;171m[38;2;167;167;167m▅[48;2;171;171;171m[38;2;167;167;167m▄[48;2;172;172;172m[38;2;169;167;168m▄[48;2;173;173;173m[38;2;170;168;169m▅[48;2;166;159;162m[38;2;0;0;0m [48;2;156;137;146m[38;2;128;64;91m╹[48;2;163;154;158m[38;2;0;0;0m [48;2;158;145;153m[38;2;0;0;0m [48;2;171;171;171m[38;2;168;167;168m▅[48;2;170;170;170m[38;2;167;165;166m▄[48;2;168;168;168m[38;2;164;164;164m▄[48;2;167;167;167m[38;2;163;163;163m▄[48;2;165;165;165m[38;2;161;161;161m▄[48;2;162;162;162m[38;2;158;158;158m▄[48;2;159;159;159m[38;2;156;156;156m▃[48;2;157;157;157m[38;2;154;154;154m▄[48;2;155;155;155m[38;2;151;151;151m▄[48;2;151;151;151m[38;2;148;148;148m▄[48;2;147;147;147m[38;2;144;144;144m▃[48;2;144;144;144m[38;2;141;141;141m▄[48;2;138;138;138m[38;2;141;141;141m▘[48;2;136;136;136m[38;2;132;132;132m▗[48;2;131;131;131m[38;2;133;133;133m▘[0m
[48;2;128;128;128m[38;2;127;127;127m▊[48;2;130;130;130m[38;2;129;129;129m▖[48;2;134;134;134m[38;2;132;132;132m▄[48;2;136;136;136m[38;2;138;138;138m▝[48;2;141;141;141m[38;2;138;138;138m▄[48;2;144;144;144m[38;2;141;141;141m▄[48;2;147;147;147m[38;2;144;144;144m▅[48;2;150;150;150m[38;2;146;146;146m▄[48;2;152;152;152m[38;2;149;149;149m▄[48;2;154;154;154m[38;2;151;151;151m▄[48;2;157;157;157m[38;2;153;153;153m▄[48;2;158;158;158m[38;2;155;155;155m▄[48;2;161;159;160m[38;2;157;155;156m▄[48;2;162;160;161m[38;2;158;156;157m▃[48;2;164;162;163m[38;2;160;158;159m▅[48;2;165;163;164m[38;2;161;159;160m▄[48;2;162;159;160m[38;2;0;0;0m [48;2;151;139;146m[38;2;111;74;90m▃[48;2;127;96;112m[38;2;156;151;153m▅[48;2;159;148;154m[38;2;137;75;110m▁[48;2;157;126;145m[38;2;112;38;79m▅[48;2;153;144;150m[38;2;108;38;78m▘[48;2;162;158;159m[38;2;0;0;0m [48;2;160;158;159m[38;2;0;0;0m [48;2;160;160;160m[38;2;158;156;157m▄[48;2;159;159;159m[38;2;156;154;155m▄[48;2;157;157;157m[38;2;154;154;154m▅[48;2;155;155;155m[38;2;152;152;152m▄[48;2;153;153;153m[38;2;150;150;150m▅[48;2;151;151;151m[38;2;148;148;148m▅[48;2;148;148;148m[38;2;145;145;145m▄[48;2;145;145;145m[38;2;143;143;143m▄[48;2;142;142;142m[38;2;139;139;139m▄[48;2;139;139;139m[38;2;136;136;136m▄[48;2;134;134;134m[38;2;136;136;136m▘[48;2;131;131;131m[38;2;133;133;133m▘[48;2;127;127;127m[38;2;130;130;130m▘[0m
[48;2;124;124;124m[38;2;123;123;123m▖[48;2;127;127;127m[38;2;126;126;126m▂[48;2;130;130;130m[38;2;129;129;129m▃[48;2;134;134;134m[38;2;131;131;131m▄[48;2;136;136;136m[38;2;133;133;133m▄[48;2;139;139;139m[38;2;136;136;136m▄[48;2;141;141;141m[38;2;139;139;139m▄[48;2;144;144;144m[38;2;141;141;141m▄[48;2;147;147;147m[38;2;144;144;144m▅[48;2;148;148;148m[38;2;144;144;144m▃[48;2;150;150;150m[38;2;148;146;147m▅[48;2;152;152;152m[38;2;150;148;149m▅[48;2;153;151;152m[38;2;150;148;149m▃[48;2;155;153;154m[38;2;152;150;151m▅[48;2;157;155;155m[38;2;153;151;151m▄[48;2;149;137;144m[38;2;111;60;88m▁[48;2;128;101;117m[38;2;98;42;71m▆[48;2;143;130;138m[38;2;118;43;86m▃[48;2;151;125;139m[38;2;108;36;76m▅[48;2;95;21;62m[38;2;118;30;79m▁[48;2;115;47;84m[38;2;144;128;138m▝[48;2;155;126;143m[38;2;106;29;72m▄[48;2;108;35;78m[38;2;126;103;117m▗[48;2;149;143;146m[38;2;0;0;0m [48;2;154;152;153m[38;2;151;149;150m▄[48;2;153;151;152m[38;2;150;148;149m▅[48;2;151;149;150m[38;2;148;146;147m▃[48;2;149;147;148m[38;2;146;144;145m▃[48;2;147;147;147m[38;2;144;144;144m▄[48;2;145;145;145m[38;2;142;142;142m▅[48;2;142;142;142m[38;2;139;139;139m▃[48;2;140;140;140m[38;2;138;138;138m▄[48;2;137;137;137m[38;2;135;135;135m▄[48;2;133;133;133m[38;2;135;135;135m▘[48;2;132;132;132m[38;2;130;130;130m▂[48;2;129;129;129m[38;2;127;127;127m▆[48;2;125;125;125m[38;2;126;126;126m▌[0m
[48;2;120;120;120m[38;2;123;123;123m▝[48;2;124;124;124m[38;2;123;123;123m▖[48;2;127;127;127m[38;2;126;126;126m▃[48;2;129;129;129m[38;2;130;130;130m┗[48;2;132;132;132m[38;2;130;130;130m▄[48;2;134;134;134m[38;2;132;132;132m▃[48;2;136;136;136m[38;2;135;135;135m▃[48;2;139;139;139m[38;2;136;136;136m▅[48;2;142;140;141m[38;2;140;138;139m▄[48;2;143;141;142m[38;2;141;139;140m▃[48;2;145;143;144m[38;2;143;141;142m▅[48;2;146;144;145m[38;2;143;141;142m▃[48;2;147;146;146m[38;2;146;142;143m▂[48;2;145;138;142m[38;2;0;0;0m [48;2;140;124;133m[38;2;98;35;71m▄[48;2;92;23;63m[38;2;139;64;106m╺[48;2;124;37;84m[38;2;129;58;98m▄[48;2;129;59;100m[38;2;79;26;60m⎼[48;2;133;56;101m[38;2;112;50;87m▄[48;2;123;47;91m[38;2;74;19;50m⎼[48;2;131;54;98m[38;2;94;38;70m▂[48;2;93;19;60m[38;2;132;61;102m▖[48;2;121;93;109m[38;2;98;31;70m▅[48;2;146;138;143m[38;2;116;67;93m▖[48;2;148;146;147m[38;2;145;143;144m▄[48;2;147;145;146m[38;2;144;142;143m▄[48;2;146;144;145m[38;2;143;141;142m▅[48;2;144;142;143m[38;2;142;140;141m▅[48;2;141;141;141m[38;2;140;138;139m▄[48;2;139;139;139m[38;2;138;136;137m▄[48;2;137;137;137m[38;2;135;135;135m▃[48;2;135;135;135m[38;2;133;133;133m▄[48;2;133;133;133m[38;2;131;131;131m▄[48;2;130;130;130m[38;2;129;129;129m▃[48;2;128;128;128m[38;2;127;127;127m▃[48;2;125;125;125m[38;2;123;123;123m▗[48;2;121;121;121m[38;2;123;123;123m▘[0m
[48;2;118;118;118m[38;2;117;117;117m▖[48;2;121;121;121m[38;2;120;120;120m▖[48;2;124;124;124m[38;2;123;123;123m▄[48;2;126;126;126m[38;2;125;125;125m▄[48;2;128;128;128m[38;2;127;127;127m▅[48;2;130;130;130m[38;2;129;129;129m▂[48;2;133;131;132m[38;2;131;129;130m▄[48;2;136;134;135m[38;2;133;131;132m▄[48;2;137;135;136m[38;2;136;134;135m▅[48;2;139;137;138m[38;2;136;134;135m▆[48;2;140;138;139m[38;2;137;135;136m▅[48;2;141;139;140m[38;2;138;136;137m▄[48;2;141;138;140m[38;2;116;82;100m▗[48;2;97;40;72m[38;2;0;0;0m [48;2;88;16;58m[38;2;82;19;57m▄[48;2;87;22;59m[38;2;110;47;88m▄[48;2;114;48;91m[38;2;0;0;0m [48;2;117;50;93m[38;2;116;49;92m▄[48;2;116;51;93m[38;2;113;60;94m▁[48;2;117;50;93m[38;2;113;50;88m▂[48;2;116;50;93m[38;2;116;49;92m▄[48;2;84;26;61m[38;2;112;48;90m▆[48;2;92;24;63m[38;2;74;21;51m▗[48;2;90;22;62m[38;2;0;0;0m [48;2;129;111;122m[38;2;90;30;65m▖[48;2;142;140;140m[38;2;139;137;138m▄[48;2;141;139;140m[38;2;138;136;137m▅[48;2;139;137;138m[38;2;137;135;136m▃[48;2;137;135;136m[38;2;136;134;135m▃[48;2;136;134;135m[38;2;134;132;133m▃[48;2;134;132;133m[38;2;133;131;132m▂[48;2;132;130;131m[38;2;131;129;130m▅[48;2;129;129;129m[38;2;128;128;128m▅[48;2;127;127;127m[38;2;126;126;126m▅[48;2;125;125;125m[38;2;123;123;123m▄[48;2;122;122;122m[38;2;121;121;121m▄[48;2;119;119;119m[38;2;120;120;120m▌[0m
[48;2;116;116;116m[38;2;115;115;115m▖[48;2;118;118;118m[38;2;117;117;117m▃[48;2;121;121;121m[38;2;119;119;119m▅[48;2;122;122;122m[38;2;121;121;121m▄[48;2;125;124;124m[38;2;123;122;123m▅[48;2;127;125;126m[38;2;126;124;125m▃[48;2;129;127;128m[38;2;128;126;127m▄[48;2;130;128;129m[38;2;129;127;128m▂[48;2;133;131;132m[38;2;130;128;129m▃[48;2;134;132;133m[38;2;131;129;130m▂[48;2;134;132;133m[38;2;135;133;134m┗[48;2;136;134;135m[38;2;135;133;134m▆[48;2;90;33;65m[38;2;124;105;119m▎[48;2;80;14;51m[38;2;0;0;0m [48;2;106;47;85m[38;2;71;20;49m▘[48;2;110;47;88m[38;2;109;46;87m▄[48;2;116;61;97m[38;2;138;132;136m▗[48;2;114;71;100m[38;2;137;131;134m▇[48;2;141;137;138m[38;2;138;134;136m▄[48;2;138;132;135m[38;2;0;0;0m [48;2;117;63;98m[38;2;136;125;132m▅[48;2;111;51;90m[38;2;0;0;0m [48;2;108;47;86m[38;2;0;0;0m [48;2;83;24;59m[38;2;64;13;44m╵[48;2;84;20;56m[38;2;0;0;0m [48;2;133;129;132m[38;2;110;69;92m▎[48;2;136;134;135m[38;2;134;132;133m▅[48;2;134;132;133m[38;2;132;130;131m▄[48;2;133;131;132m[38;2;131;129;130m▄[48;2;131;129;130m[38;2;129;127;128m▁[48;2;130;128;129m[38;2;129;127;128m▃[48;2;129;127;128m[38;2;128;126;127m▅[48;2;125;125;125m[38;2;125;123;124m▄[48;2;123;123;123m[38;2;123;121;122m▃[48;2;121;121;121m[38;2;120;120;120m▂[48;2;119;119;119m[38;2;118;118;118m▃[48;2;117;117;117m[38;2;116;116;116m▗[0m
[48;2;113;113;113m[38;2;112;112;112m▖[48;2;116;116;116m[38;2;115;115;115m▄[48;2;117;117;117m[38;2;118;118;118m▝[48;2;119;119;119m[38;2;118;118;118m▖[48;2;122;120;121m[38;2;121;119;120m▃[48;2;124;122;123m[38;2;122;120;121m▄[48;2;126;124;125m[38;2;125;123;124m▄[48;2;128;126;127m[38;2;126;124;125m▅[48;2;128;126;127m[38;2;127;125;126m▄[48;2;131;129;130m[38;2;128;126;127m▅[48;2;130;129;129m[38;2;132;128;129m┃[48;2;127;118;123m[38;2;130;128;131m▊[48;2;78;17;52m[38;2;86;40;68m▎[48;2;81;39;66m[38;2;72;13;47m▊[48;2;103;45;83m[38;2;109;45;82m│[48;2;105;68;93m[38;2;105;45;85m▊[48;2;134;130;132m[38;2;0;0;0m [48;2;135;133;133m[38;2;135;130;132m▅[48;2;137;135;136m[38;2;135;131;132m▇[48;2;137;135;136m[38;2;135;131;132m▇[48;2;138;127;132m[38;2;134;132;133m▊[48;2;105;44;82m[38;2;129;123;128m▌[48;2;106;46;85m[38;2;101;46;82m┏[48;2;62;15;44m[38;2;106;44;81m▌[48;2;72;15;48m[38;2;83;15;53m▊[48;2;133;131;132m[38;2;89;41;66m▌[48;2;131;129;130m[38;2;129;127;128m▃[48;2;130;128;129m[38;2;129;127;128m▃[48;2;130;128;129m[38;2;128;126;127m▅[48;2;128;126;127m[38;2;126;124;125m▂[48;2;126;124;125m[38;2;125;123;124m▂[48;2;125;123;124m[38;2;124;122;123m▄[48;2;122;120;121m[38;2;121;119;120m▗[48;2;120;118;119m[38;2;119;117;118m▗[48;2;119;119;119m[38;2;119;117;118m▄[48;2;116;116;116m[38;2;116;114;115m▄[48;2;114;114;114m[38;2;115;115;115m▘[0m
[48;2;111;111;111m[38;2;110;110;110m▃[48;2;113;113;113m[38;2;114;114;114m▝[48;2;115;115;115m[38;2;114;114;114m▌[48;2;118;116;117m[38;2;116;114;115m▄[48;2;120;118;119m[38;2;119;117;118m▅[48;2;121;119;120m[38;2;122;120;121m▝[48;2;123;121;122m[38;2;122;120;121m▅[48;2;124;122;123m[38;2;123;121;122m▃[48;2;125;123;124m[38;2;124;122;123m▃[48;2;126;124;125m[38;2;125;123;124m▃[48;2;128;126;127m[38;2;126;124;125m▅[48;2;127;125;126m[38;2;129;127;128m▝[48;2;79;22;54m[38;2;109;81;97m▎[48;2;62;16;43m[38;2;80;14;52m▊[48;2;95;40;75m[38;2;0;0;0m [48;2;102;44;81m[38;2;98;45;81m╵[48;2;124;110;118m[38;2;99;48;83m▖[48;2;133;128;129m[38;2;130;126;127m▄[48;2;133;129;130m[38;2;131;127;128m▃[48;2;133;129;130m[38;2;131;127;128m▂[48;2;126;115;122m[38;2;0;0;0m [48;2;102;44;81m[38;2;122;91;110m▘[48;2;104;43;81m[38;2;100;44;83m┃[48;2;90;27;63m[38;2;67;20;49m┃[48;2;80;15;51m[38;2;0;0;0m [48;2;125;117;121m[38;2;87;43;66m▎[48;2;128;126;127m[38;2;126;124;125m▃[48;2;127;125;126m[38;2;125;123;124m▃[48;2;126;124;125m[38;2;125;123;124m▆[48;2;125;123;124m[38;2;123;121;122m▃[48;2;124;122;123m[38;2;122;120;121m▂[48;2;122;120;121m[38;2;121;119;120m▄[48;2;120;118;119m[38;2;119;117;118m▃[48;2;118;116;117m[38;2;117;115;116m▗[48;2;116;116;116m[38;2;115;115;115m▃[48;2;114;114;114m[38;2;113;113;113m▄[48;2;112;112;112m[38;2;111;111;111m▃[0m
[48;2;109;109;109m[38;2;108;108;108m▖[48;2;111;111;111m[38;2;112;112;112m▝[48;2;114;112;113m[38;2;113;111;112m▖[48;2;116;114;115m[38;2;115;113;114m▃[48;2;117;115;116m[38;2;118;116;117m▝[48;2;119;117;118m[38;2;120;118;119m▝[48;2;120;118;119m[38;2;121;119;120m▝[48;2;122;120;121m[38;2;121;119;120m▄[48;2;122;120;121m[38;2;123;121;122m▝[48;2;124;122;123m[38;2;122;120;121m▄[48;2;124;122;123m[38;2;123;121;122m▂[48;2;125;123;124m[38;2;124;122;123m▄[48;2;123;117;119m[38;2;89;43;68m▝[48;2;81;23;56m[38;2;0;0;0m [48;2;82;23;57m[38;2;64;16;45m╺[48;2;91;37;71m[38;2;0;0;0m [48;2;100;42;81m[38;2;118;44;89m▗[48;2;125;98;115m[38;2;117;48;91m▇[48;2;129;124;127m[38;2;117;48;91m▆[48;2;128;111;121m[38;2;119;46;91m▆[48;2;107;46;85m[38;2;118;45;90m▄[48;2;96;41;77m[38;2;0;0;0m [48;2;88;35;69m[38;2;78;22;54m▄[48;2;80;17;52m[38;2;0;0;0m [48;2;86;39;65m[38;2;124;114;119m▗[48;2;125;122;124m[38;2;0;0;0m [48;2;124;122;123m[38;2;123;121;122m▃[48;2;124;122;123m[38;2;122;120;121m▅[48;2;123;121;122m[38;2;122;120;121m▃[48;2;122;120;121m[38;2;121;119;120m▅[48;2;120;118;119m[38;2;119;117;118m▄[48;2;119;117;118m[38;2;118;116;117m━[48;2;118;116;117m[38;2;117;115;116m▄[48;2;116;114;115m[38;2;115;113;114m▗[48;2;115;113;114m[38;2;114;112;113m▃[48;2;112;112;112m[38;2;111;111;111m▗[48;2;110;110;110m[38;2;109;109;109m▗[0m
[48;2;107;107;107m[38;2;108;108;108m▝[48;2;109;109;109m[38;2;110;110;110m▝[48;2;112;110;111m[38;2;111;109;110m▖[48;2;114;112;113m[38;2;113;111;112m▎[48;2;116;114;115m[38;2;115;113;114m▅[48;2;117;115;116m[38;2;116;114;115m▃[48;2;118;116;117m[38;2;119;117;118m▝[48;2;119;117;118m[38;2;118;116;117m▂[48;2;120;118;119m[38;2;119;117;118m▄[48;2;121;119;120m[38;2;120;118;119m▄[48;2;122;120;121m[38;2;120;118;119m▅[48;2;122;120;121m[38;2;121;119;120m▄[48;2;124;120;121m[38;2;123;118;119m▄[48;2;121;116;119m[38;2;95;57;80m▝[48;2;90;43;70m[38;2;116;105;112m▁[48;2;84;25;57m[38;2;0;0;0m [48;2;90;28;66m[38;2;85;21;54m▄[48;2;107;32;76m[38;2;82;22;58m━[48;2;104;32;74m[38;2;82;14;53m▁[48;2;107;32;76m[38;2;59;16;46m─[48;2;102;31;71m[38;2;68;10;44m╴[48;2;85;22;56m[38;2;86;25;57m▄[48;2;89;35;65m[38;2;0;0;0m [48;2;91;48;71m[38;2;117;109;113m▄[48;2;122;118;119m[38;2;0;0;0m [48;2;122;119;120m[38;2;0;0;0m [48;2;124;120;121m[38;2;123;119;120m▆[48;2;121;119;120m[38;2;120;118;119m▃[48;2;120;118;119m[38;2;119;117;118m▃[48;2;119;117;118m[38;2;118;116;117m▁[48;2;119;117;118m[38;2;118;116;117m▅[48;2;117;115;116m[38;2;116;114;115m▃[48;2;115;113;114m[38;2;116;114;115m▘[48;2;114;112;113m[38;2;115;113;114m▘[48;2;112;110;111m[38;2;113;111;112m▊[48;2;111;109;110m[38;2;110;108;109m▗[48;2;108;108;108m[38;2;109;109;109m▘[0m
[48;2;107;107;107m[38;2;106;106;106m▊[48;2;108;108;108m[38;2;107;107;107m▎[48;2;111;109;110m[38;2;110;108;109m▖[48;2;113;111;112m[38;2;112;110;111m▌[48;2;114;112;113m[38;2;113;111;112m▃[48;2;115;113;114m[38;2;116;114;115m▝[48;2;116;114;115m[38;2;117;115;116m▝[48;2;118;116;117m[38;2;117;115;116m▅[48;2;118;116;117m[38;2;119;117;118m▝[48;2;119;117;118m[38;2;117;115;116m▂[48;2;120;118;119m[38;2;118;116;117m▆[48;2;122;117;119m[38;2;120;115;117m▆[48;2;121;117;118m[38;2;119;115;116m▄[48;2;121;117;118m[38;2;119;115;116m▄[48;2;119;111;116m[38;2;89;54;76m▗[48;2;81;25;55m[38;2;112;99;109m▂[48;2;82;32;59m[38;2;116;102;110m▄[48;2;79;21;52m[38;2;74;15;47m▄[48;2;82;30;57m[38;2;106;88;98m▁[48;2;81;24;54m[38;2;113;98;106m▃[48;2;81;33;58m[38;2;0;0;0m [48;2;91;51;73m[38;2;114;105;108m▅[48;2;119;112;114m[38;2;0;0;0m [48;2;119;115;116m[38;2;121;118;119m▘[48;2;121;117;118m[38;2;120;116;117m▅[48;2;121;117;118m[38;2;120;116;117m▅[48;2;121;117;118m[38;2;120;116;117m▄[48;2;120;116;117m[38;2;119;115;116m▃[48;2;118;116;117m[38;2;116;114;115m▄[48;2;117;115;116m[38;2;116;114;115m▃[48;2;116;114;115m[38;2;117;115;116m▘[48;2;115;113;114m[38;2;116;114;115m▘[48;2;114;112;113m[38;2;115;113;114m▘[48;2;113;111;112m[38;2;112;110;111m▗[48;2;111;109;110m[38;2;112;110;111m▘[48;2;109;107;108m[38;2;110;108;109m▌[48;2;106;105;106m[38;2;108;106;107m▊[0m
[48;2;106;106;106m[38;2;105;105;105m▊[48;2;109;107;108m[38;2;108;106;107m▌[48;2;111;109;110m[38;2;110;108;109m▊[48;2;112;110;111m[38;2;111;109;110m▎[48;2;113;111;112m[38;2;112;110;111m▖[48;2;114;112;113m[38;2;115;113;114m▝[48;2;115;113;114m[38;2;116;114;115m▝[48;2;116;114;115m[38;2;115;113;114m▃[48;2;116;114;115m[38;2;115;113;114m▃[48;2;118;114;115m[38;2;116;114;115m▎[48;2;118;114;115m[38;2;119;115;116m [48;2;118;114;115m[38;2;117;113;114m▃[48;2;118;114;115m[38;2;117;113;114m▃[48;2;118;114;115m[38;2;117;113;114m▃[48;2;118;113;115m[38;2;118;111;113m▄[48;2;116;109;111m[38;2;0;0;0m [48;2;83;31;58m[38;2;105;86;96m▚[48;2;85;38;64m[38;2;111;105;108m▅[48;2;112;101;105m[38;2;68;36;48m▗[48;2;106;89;96m[38;2;74;37;53m┛[48;2;114;105;108m[38;2;0;0;0m [48;2;116;111;112m[38;2;119;110;113m│[48;2;118;112;114m[38;2;117;111;113m▄[48;2;119;113;115m[38;2;117;111;113m▅[48;2;118;114;115m[38;2;117;113;114m▄[48;2;118;114;115m[38;2;117;113;114m▄[48;2;118;114;115m[38;2;117;113;114m▄[48;2;118;114;115m[38;2;117;113;114m▄[48;2;116;114;115m[38;2;115;113;114m▃[48;2;116;114;115m[38;2;115;113;114m▅[48;2;115;113;114m[38;2;114;112;113m▄[48;2;114;112;113m[38;2;115;113;114m▘[48;2;113;111;112m[38;2;114;112;113m▘[48;2;112;110;111m[38;2;113;111;112m▌[48;2;110;108;109m[38;2;111;109;110m▊[48;2;109;107;108m[38;2;108;106;107m▗[48;2;105;104;105m[38;2;107;105;106m▖[0m
[48;2;105;105;105m[38;2;104;104;104m▌[48;2;108;106;107m[38;2;109;107;108m│[48;2;110;108;109m[38;2;109;107;108m▌[48;2;112;110;111m[38;2;111;109;110m▌[48;2;113;111;112m[38;2;112;110;111m┛[48;2;113;111;112m[38;2;114;112;113m▝[48;2;114;112;113m[38;2;113;111;112m▁[48;2;115;113;114m[38;2;114;112;113m▆[48;2;115;113;114m[38;2;114;112;113m▅[48;2;117;113;114m[38;2;116;112;113m▅[48;2;117;113;114m[38;2;116;112;113m▇[48;2;117;113;114m[38;2;116;112;113m▇[48;2;116;112;113m[38;2;116;110;112m▄[48;2;116;110;112m[38;2;117;108;111m▂[48;2;116;110;112m[38;2;115;109;111m▄[48;2;114;108;110m[38;2;115;109;111m▘[48;2;108;98;102m[38;2;0;0;0m [48;2;97;79;88m[38;2;62;22;38m╹[48;2;114;104;109m[38;2;82;55;65m▘[48;2;114;108;109m[38;2;115;105;109m▄[48;2;115;109;111m[38;2;116;107;110m▅[48;2;115;109;111m[38;2;114;108;110m▄[48;2;116;110;112m[38;2;115;109;111m▅[48;2;116;110;112m[38;2;115;109;111m▖[48;2;117;111;113m[38;2;116;110;112m▅[48;2;116;112;113m[38;2;115;111;112m▅[48;2;116;112;113m[38;2;115;111;112m▄[48;2;116;112;113m[38;2;115;111;112m▄[48;2;114;112;113m[38;2;115;113;114m─[48;2;114;112;113m[38;2;115;113;114m─[48;2;114;112;113m[38;2;113;111;112m▄[48;2;113;111;112m[38;2;113;111;112m [48;2;113;111;112m[38;2;113;111;112m [48;2;111;109;110m[38;2;112;110;111m▌[48;2;109;107;108m[38;2;111;109;110m▎[48;2;108;106;107m[38;2;109;107;108m▌[48;2;106;104;105m[38;2;105;105;105m▄[0m
[48;2;105;105;105m[38;2;104;104;104m▌[48;2;108;108;108m[38;2;107;107;107m▌[48;2;110;108;109m[38;2;110;108;109m [48;2;112;110;111m[38;2;111;109;110m▌[48;2;113;111;112m[38;2;113;111;112m [48;2;113;111;112m[38;2;113;111;112m [48;2;114;112;113m[38;2;113;111;112m▌[48;2;114;112;113m[38;2;114;112;113m [48;2;114;112;113m[38;2;115;111;112m▄[48;2;113;111;112m[38;2;115;111;112m▄[48;2;115;111;112m[38;2;115;111;112m [48;2;115;111;112m[38;2;115;111;112m [48;2;116;110;112m[38;2;115;109;111m▃[48;2;114;108;110m[38;2;115;109;111m▌[48;2;113;105;108m[38;2;0;0;0m [48;2;101;87;94m[38;2;64;37;49m╺[48;2;81;57;69m[38;2;110;101;104m▅[48;2;113;105;110m[38;2;113;105;109m▄[48;2;114;105;110m[38;2;115;106;111m▘[48;2;114;105;110m[38;2;115;106;111m▝[48;2;115;106;111m[38;2;114;105;110m▃[48;2;115;106;109m[38;2;115;106;109m [48;2;114;108;110m[38;2;113;107;109m▅[48;2;115;109;111m[38;2;114;108;110m▅[48;2;115;111;112m[38;2;115;109;111m▅[48;2;115;111;112m[38;2;116;110;112m▄[48;2;115;111;112m[38;2;115;111;112m [48;2;115;111;112m[38;2;115;111;112m [48;2;115;111;112m[38;2;115;111;112m [48;2;113;111;112m[38;2;113;111;112m [48;2;113;111;112m[38;2;113;111;112m [48;2;113;111;112m[38;2;113;111;112m [48;2;113;111;112m[38;2;112;110;111m▝[48;2;112;110;111m[38;2;111;109;110m▝[48;2;110;108;109m[38;2;111;109;110m▌[48;2;108;106;107m[38;2;109;107;108m▌[48;2;105;104;104m[38;2;106;106;106m▖[0m
[48;2;107;107;107m[38;2;105;105;105m▌[48;2;109;109;109m[38;2;108;108;108m▊[48;2;111;109;110m[38;2;110;108;109m▘[48;2;113;111;112m[38;2;112;110;111m▌[48;2;113;111;112m[38;2;114;112;113m▃[48;2;114;112;113m[38;2;113;111;112m [48;2;114;112;113m[38;2;114;112;113m [48;2;114;112;113m[38;2;114;112;113m [48;2;116;112;113m[38;2;115;111;112m [48;2;115;111;112m[38;2;116;112;113m▃[48;2;115;111;112m[38;2;115;111;112m [48;2;115;111;112m[38;2;115;111;112m [48;2;115;109;111m[38;2;114;109;110m▄[48;2;105;93;97m[38;2;0;0;0m [48;2;103;90;94m[38;2;72;45;54m╸[48;2;113;104;107m[38;2;0;0;0m [48;2;114;105;108m[38;2;114;105;108m [48;2;113;104;107m[38;2;114;105;108m▌[48;2;113;104;109m[38;2;113;104;107m▃[48;2;113;104;109m[38;2;113;104;107m▃[48;2;114;105;108m[38;2;113;104;107m━[48;2;115;106;109m[38;2;114;105;108m▅[48;2;113;107;109m[38;2;113;107;109m [48;2;114;108;110m[38;2;113;107;109m▌[48;2;115;109;111m[38;2;114;108;110m▊[48;2;116;110;112m[38;2;115;109;111m▘[48;2;115;111;112m[38;2;115;111;112m [48;2;115;111;112m[38;2;115;111;112m [48;2;115;111;112m[38;2;116;112;113m [48;2;113;111;112m[38;2;114;112;113m▄[48;2;113;111;112m[38;2;114;112;113m▅[48;2;113;111;112m[38;2;114;112;113m▃[48;2;113;111;112m[38;2;114;112;113m [48;2;112;110;111m[38;2;113;111;112m▅[48;2;111;109;110m[38;2;112;110;111m▖[48;2;108;108;108m[38;2;109;109;109m▖[48;2;106;106;106m[38;2;107;107;107m▌[0m

If you used 'cat' to view this file, above this text should be an ANSI
picture of TheOuterLinux logo.
