###################################
# pyradio - Where to get Stations #
###################################

Not all of the websites bellow are terminal web browser friendly.

1. https://www.shoutcast.com/
2. https://www.xatworld.com/radio-search/
